LLM-Assisted Issue Triage for Open Source Maintainers
…
cpp_issues <- issues_with_components |>
    filter(component == "C++") 

issues_dataset <- bind_rows(
    r_issues |> slice_head(n = 30),
    python_issues |> slice_head(n = 30),
    cpp_issues |> slice_head(n = 30)
)

# shuffle the dataset
issues_dataset <- issues_dataset |>
     slice_sample(prop = 1)

# A tibble: 90 × 5
   number title                                           body  labels component
    <dbl> <chr>                                           <chr> <chr>  <chr>    
 1  49129 "[R] Compilation fails when Parquet support is… "###… <chr>  R        
 2  47801 "[Python][CI] Remove use of CMAKE_POLICY_VERSI… "###… <chr>  Python   
 3  49222 "[Python] data loss converting to Table from p… "###… <chr>  Python   
 4  48265 "[Python][GPU] Numba interop tests broken by N… "###… <chr>  Python   
 5  43336 "[R] stringr binding for `str_starts` fails ba… "###… <chr>  R        
 6  48349 "[Python] Support array indices in pc.list_ele… "###… <chr>  Python   
 7  44306 "[R] please write unregister_scalar_function a… "###… <chr>  R        
 8  47698 "pc.subtract_checked(x, x) with x as pa.array(… "###… <chr>  Python   
 9  48832 "[R] arrow::write_parquet error with zero-leng… "###… <chr>  R        
10  45314 "[R] arrow R package: multiple replacement dis… "###… <chr>  R        
# ℹ 80 more rows
…
